{
  "stats": {
    "suites": 1,
    "tests": 2,
    "passes": 2,
    "pending": 0,
    "failures": 0,
    "start": "2021-06-28T03:40:33.747Z",
    "end": "2021-06-28T03:40:47.965Z",
    "duration": 14218,
    "testsRegistered": 2,
    "passPercent": 100,
    "pendingPercent": 0,
    "other": 0,
    "hasOther": false,
    "skipped": 0,
    "hasSkipped": false
  },
  "results": [
    {
      "uuid": "9eeacbf1-ccc4-4f41-a182-5731c9c8cd4f",
      "title": "",
      "fullFile": "cypress/integration/LyteVenturesWebsite.js",
      "file": "cypress/integration/LyteVenturesWebsite.js",
      "beforeHooks": [],
      "afterHooks": [],
      "tests": [],
      "suites": [
        {
          "uuid": "3ff79ae4-88bb-4f33-9a70-9c27fffe6660",
          "title": "As a user I want to Validate Lyteventures Website and Services",
          "fullFile": "",
          "file": "",
          "beforeHooks": [],
          "afterHooks": [],
          "tests": [
            {
              "title": "AC1 - Visual Testing - Verify the Home page buttons are correct with DOM",
              "fullTitle": "As a user I want to Validate Lyteventures Website and Services AC1 - Visual Testing - Verify the Home page buttons are correct with DOM",
              "timedOut": null,
              "duration": 6028,
              "state": "passed",
              "speed": "slow",
              "pass": true,
              "fail": false,
              "pending": false,
              "context": null,
              "code": "cy.visit('https://www.lyteventures.com/').then(function () {\n  cy.get('[data-instance=\"1\"]').wait(1000).click().toMatchImageSnapshot();\n});",
              "err": {},
              "uuid": "37dae1ce-68f9-4952-b5a5-68676d277aa6",
              "parentUUID": "3ff79ae4-88bb-4f33-9a70-9c27fffe6660",
              "isHook": false,
              "skipped": false
            },
            {
              "title": "AC2 -Functional Testing - Verify the Home page has data field options",
              "fullTitle": "As a user I want to Validate Lyteventures Website and Services AC2 -Functional Testing - Verify the Home page has data field options",
              "timedOut": null,
              "duration": 2435,
              "state": "passed",
              "speed": "slow",
              "pass": true,
              "fail": false,
              "pending": false,
              "context": null,
              "code": "// cy.visit('https://www.lyteventures.com/'); \n// cy.get('.btn-hero-choice').click() \n// cy.server()\n// cy.route('POST' , '**/visit-data?sv=6','fixtures:visit_data.json')\ncy.visit('https://www.lyteventures.com/');\nvar OptionLinkText = [\"I'm a Freelancer\", \"I'm a Property Agent\", \"I'm a Company\"];\ncy.get('[data-calc-value=\"0\"]').should(\"have.length\", 3);\ncy.get('[data-calc-value=\"0\"]').each(function ($li, index, $lis) {\n  cy.wrap($li).should('contain.value', OptionLinkText[index]);\n});\ncy.get('.btn-hero-choice').contains(\"Let's Go\").click();",
              "err": {},
              "uuid": "83208946-38b0-435c-b09a-5695c9253b04",
              "parentUUID": "3ff79ae4-88bb-4f33-9a70-9c27fffe6660",
              "isHook": false,
              "skipped": false
            }
          ],
          "suites": [],
          "passes": [
            "37dae1ce-68f9-4952-b5a5-68676d277aa6",
            "83208946-38b0-435c-b09a-5695c9253b04"
          ],
          "failures": [],
          "pending": [],
          "skipped": [],
          "duration": 8463,
          "root": false,
          "rootEmpty": false,
          "_timeout": 2000
        }
      ],
      "passes": [],
      "failures": [],
      "pending": [],
      "skipped": [],
      "duration": 0,
      "root": true,
      "rootEmpty": true,
      "_timeout": 2000
    }
  ],
  "meta": {
    "mocha": {
      "version": "7.0.1"
    },
    "mochawesome": {
      "options": {
        "quiet": false,
        "reportFilename": "mochawesome",
        "saveHtml": true,
        "saveJson": true,
        "consoleReporter": "spec",
        "useInlineDiffs": false,
        "code": true
      },
      "version": "6.1.1"
    },
    "marge": {
      "options": {
        "id": "default",
        "reportDir": "cypress/reports/mocha",
        "quite": true,
        "overwrite": true,
        "html": true,
        "json": true,
        "videos": true
      },
      "version": "5.1.0"
    }
  }
}