{
  "baseUrl" : "https://juice-shop.herokuapp.com/",
  "pageLoadTimeout" : 10000,
  "reporter": "cypress-multi-reporters",
  "ignoreTestFiles": [
              "**/__snapshots__/*",
              "**/__image_snapshots__/*"
  ],
  "reporterOptions": {
    "reporterEnabled": "mochawesome",
    "mochawesomeReporterOptions": {
      "reportDir": "cypress/reports/mocha",
      "quite": true,
      "overwrite": true,
      "html": true,
      "json": true,
      "videos": true
    }
  },
  "projectId": "8s43ec"
   
}
